{
    "server": {
        "port": 5000,
        "jwtSecret": "test",
        "jwtExpiration": "1h",
        "mongo": {
            "uri": "mongodb://dev-mongo.l2-dev.9f982e08.svc.dockerapp.io/l24u-api",
            "options": {
                "db": {
                    "safe": true
                }
            }
        },
        "seedDb": true,
        "userRoles": ["guest", "user", "admin", "prem", "superprem"],
        "recaptchaSecret": "6LeLKREUAAAAACUujln4jwLPwsXgeGLtZFUFM8RF",
        "recaptchaSite": "6LeLKREUAAAAAH3JnoS7Cm9254U5jAAnWnh_EtSQ",
        "mailUser": "lineage2foru",
        "mailPass": "Lf,thvfy1985",
        "mailHost": "smtp.yandex.ru",
        "proxyAddress": "l24u.ru",
        "maxFailLoginTries": 3,
        "failLoginTriesSaveTime": 600000,
        "useInviteToRegister": false
    },
    "mq": {
        "RABBITMQ_ADDRESS": "mq.l24u.6bc82352.svc.dockerapp.io",
        "RABBITMQ_LOGIN": "l24u",
        "RABBITMQ_PASS": "Lf,thvfy1985",
        "RABBITMQ_QUEUE": "comm_dev"
    },
    "social": {
        "FACEBOOK_ID": "mq.l24u.6bc82352.svc.dockerapp.io",
        "FACEBOOK_SECRET": "l24u",
        "FACEBOOK_CB": "/auth/facebook/callback",
        "VK_ID": "Lf,thvfy1985",
        "VK_SECRET": "comm_dev",
        "VK_CB": "/auth/vk/callback"
    },
    "db": {
        "baseApi": "https://service.l24u.ru",
        "email": "dimkk@outlook.com",
        "pass": "Fucku2u2"
    }
}